…
Let’s review the unique values of LA code and name in the `info` df.

``` r
# Review the unique values in la_name
info %>% 
  select(la_code, gss_la_code, la_name) %>% 
  distinct() %>% 
  arrange(la_name, la_code, gss_la_code)
```

    ## # A tibble: 184 × 3
    ##    la_code gss_la_code la_name                     
    ##      <dbl> <chr>       <chr>                       
    ##  1     301 E09000002   Barking and Dagenham        
    ##  2     302 E09000003   Barnet                      
    ##  3     302 X999999     Barnet                      
    ##  4     370 E08000016   Barnsley                    
    ##  5     800 E06000022   Bath and North East Somerset
    ##  6     800 X999999     Bath and North East Somerset
    ##  7     822 E06000055   Bedford                     
    ##  8     303 E09000004   Bexley                      
    ##  9     330 E08000025   Birmingham                  
    ## 10     330 X999999     Birmingham                  
    ## # … with 174 more rows
    ## # ℹ Use `print(n = ...)` to see more rows
…
Let’s review the categorical values to ensure they are consistent and
well labelled.

``` r
# Review the unique values of la_name
offers %>% 
  select(la_code, gss_la_code, la_name) %>% 
  distinct() %>% 
  arrange(la_name, la_code)
```

    ## # A tibble: 160 × 3
    ##    la_code gss_la_code la_name                     
    ##      <dbl> <chr>       <chr>                       
    ##  1     301 E09000002   Barking and Dagenham        
    ##  2     302 E09000003   Barnet                      
    ##  3     370 E08000016   Barnsley                    
    ##  4     800 E06000022   Bath and North East Somerset
    ##  5     822 E06000055   Bedford                     
    ##  6     303 E09000004   Bexley                      
    ##  7     330 E08000025   Birmingham                  
    ##  8     889 E06000008   Blackburn with Darwen       
    ##  9     890 E06000009   Blackpool                   
    ## 10     350 E08000001   Bolton                      
    ## # … with 150 more rows
    ## # ℹ Use `print(n = ...)` to see more rows
…
